%YAML 1.1
%TAG !u! tag:unity3d.com,2011:
--- !u!1045 &1
EditorBuildSettings:
  m_ObjectHideFlags: 0
  serializedVersion: 2
  m_Scenes:
  - enabled: 1
    path: Assets/Scenes/MainMenu.unity
    guid: 2cda990e2423bbf4892e6590ba056729
  - enabled: 1
    path: Assets/Scenes/NoobGame.unity
    guid: 658e2f2da0c336849987bc2d3e39b067
  - enabled: 1
    path: Assets/Scenes/QuizGame.unity
    guid: 297ff63007af5894a99a7793e76baad5
  - enabled: 1
    path: Assets/Scenes/TimeTrialGame.unity
    guid: a6de5623290ecaa4db1c51a4f4198803
  m_configObjects: {}
